/* XPM */
static char * menuButtonA_xpm[] = {
"29 58 3 1",
" 	c #211400",
".	c #FFAB53",
"+	c #BA7768",
"                             ",
"                             ",
"                             ",
"                             ",
"                             ",
"                             ",
"                             ",
"    .....................    ",
"    .....................    ",
"    .....................    ",
"                             ",
"                             ",
"                             ",
"    .....................    ",
"    .....................    ",
"    .....................    ",
"                             ",
"                             ",
"                             ",
"    .....................    ",
"    .....................    ",
"    .....................    ",
"                             ",
"                             ",
"                             ",
"                             ",
"                             ",
"                             ",
"                             ",
"                             ",
"                             ",
"                             ",
"                             ",
"                             ",
"                             ",
"                             ",
"    +++++++++++++++++++++    ",
"    +++++++++++++++++++++    ",
"    +++++++++++++++++++++    ",
"                             ",
"                             ",
"                             ",
"    +++++++++++++++++++++    ",
"    +++++++++++++++++++++    ",
"    +++++++++++++++++++++    ",
"                             ",
"                             ",
"                             ",
"    +++++++++++++++++++++    ",
"    +++++++++++++++++++++    ",
"    +++++++++++++++++++++    ",
"                             ",
"                             ",
"                             ",
"                             ",
"                             ",
"                             ",
"                             "};
