/* XPM */
static char * minimizeI_xpm[] = {
"19 58 3 1",
" 	c #211400",
".	c #BABABA",
"+	c #636363",
"                   ",
"                   ",
"                   ",
"                   ",
"                   ",
"                   ",
"                   ",
"    ...........    ",
"   .............   ",
"  ...............  ",
" ................. ",
" ................. ",
" ................. ",
" ................. ",
" ................. ",
" ................. ",
" ..... ..... ..... ",
" ..... ..... ..... ",
" .....       ..... ",
" ................. ",
" ................. ",
"  ...............  ",
"   .............   ",
"    ...........    ",
"                   ",
"                   ",
"                   ",
"                   ",
"                   ",
"                   ",
"                   ",
"                   ",
"                   ",
"                   ",
"                   ",
"                   ",
"    +++++++++++    ",
"   +++++++++++++   ",
"  +++++++++++++++  ",
" +++++++++++++++++ ",
" +++++++++++++++++ ",
" +++++++++++++++++ ",
" +++++++++++++++++ ",
" +++++++++++++++++ ",
" +++++++++++++++++ ",
" +++++ +++++ +++++ ",
" +++++ +++++ +++++ ",
" +++++       +++++ ",
" +++++++++++++++++ ",
" +++++++++++++++++ ",
"  +++++++++++++++  ",
"   +++++++++++++   ",
"    +++++++++++    ",
"                   ",
"                   ",
"                   ",
"                   ",
"                   "};
