/* XPM */
static char * rollupI_xpm[] = {
"17 58 3 1",
" 	c #211400",
".	c #BABABA",
"+	c #636363",
"                 ",
"                 ",
"                 ",
"                 ",
"                 ",
"                 ",
"                 ",
"                 ",
"                 ",
"        .        ",
"       ...       ",
"      .....      ",
"     .......     ",
"    .........    ",
"   ...........   ",
"  .............  ",
"       ...       ",
"       ...       ",
"       ...       ",
"       ...       ",
"       ...       ",
"       ...       ",
"                 ",
"                 ",
"                 ",
"                 ",
"                 ",
"                 ",
"                 ",
"                 ",
"                 ",
"                 ",
"                 ",
"                 ",
"                 ",
"                 ",
"                 ",
"                 ",
"        +        ",
"       +++       ",
"      +++++      ",
"     +++++++     ",
"    +++++++++    ",
"   +++++++++++   ",
"  +++++++++++++  ",
"       +++       ",
"       +++       ",
"       +++       ",
"       +++       ",
"       +++       ",
"       +++       ",
"                 ",
"                 ",
"                 ",
"                 ",
"                 ",
"                 ",
"                 "};
