/* XPM */
static char * rolldownA_xpm[] = {
"17 58 3 1",
" 	c #211400",
".	c #FFAB53",
"+	c #BA7768",
"                 ",
"                 ",
"                 ",
"                 ",
"                 ",
"                 ",
"                 ",
"       ...       ",
"       ...       ",
"       ...       ",
"       ...       ",
"       ...       ",
"       ...       ",
"  .............  ",
"   ...........   ",
"    .........    ",
"     .......     ",
"      .....      ",
"       ...       ",
"        .        ",
"                 ",
"                 ",
"                 ",
"                 ",
"                 ",
"                 ",
"                 ",
"                 ",
"                 ",
"                 ",
"                 ",
"                 ",
"                 ",
"                 ",
"                 ",
"                 ",
"       +++       ",
"       +++       ",
"       +++       ",
"       +++       ",
"       +++       ",
"       +++       ",
"  +++++++++++++  ",
"   +++++++++++   ",
"    +++++++++    ",
"     +++++++     ",
"      +++++      ",
"       +++       ",
"        +        ",
"                 ",
"                 ",
"                 ",
"                 ",
"                 ",
"                 ",
"                 ",
"                 ",
"                 "};
